[gd_resource type="TileSet" load_steps=50 format=2]

[ext_resource path="res://Sprites/Maze/TileMap_32x32.png" type="Texture" id=1]

[sub_resource type="ConvexPolygonShape2D" id=1]
points = PoolVector2Array( 8, 8, 8, 0, 0, 0, 0, 8 )

[sub_resource type="ConvexPolygonShape2D" id=2]
points = PoolVector2Array( 32, 8, 24, 8, 24, 0, 32, 0 )

[sub_resource type="ConvexPolygonShape2D" id=3]
points = PoolVector2Array( 8, 32, 0, 32, 0, 24, 8, 24 )

[sub_resource type="ConvexPolygonShape2D" id=4]
points = PoolVector2Array( 32, 32, 24, 32, 24, 24, 32, 24 )

[sub_resource type="ConvexPolygonShape2D" id=5]
points = PoolVector2Array( 32, 8, 0, 8, 0, 0, 32, 0 )

[sub_resource type="ConvexPolygonShape2D" id=6]
points = PoolVector2Array( 8, 32, 0, 32, 0, 24, 8, 24 )

[sub_resource type="ConvexPolygonShape2D" id=7]
points = PoolVector2Array( 32, 32, 24, 32, 24, 24, 32, 24 )

[sub_resource type="ConvexPolygonShape2D" id=8]
points = PoolVector2Array( 0, 0, 8, 0, 8, 8, 0, 8 )

[sub_resource type="ConvexPolygonShape2D" id=9]
points = PoolVector2Array( 32, 8, 24, 8, 24, 0, 32, 0 )

[sub_resource type="ConvexPolygonShape2D" id=10]
points = PoolVector2Array( 32, 32, 0, 32, 0, 24, 32, 24 )

[sub_resource type="ConvexPolygonShape2D" id=11]
points = PoolVector2Array( 0, 0, 32, 0, 32, 8, 0, 8 )

[sub_resource type="ConvexPolygonShape2D" id=12]
points = PoolVector2Array( 32, 32, 0, 32, 0, 24, 32, 24 )

[sub_resource type="ConvexPolygonShape2D" id=13]
points = PoolVector2Array( 0, 0, 8, 0, 8, 8, 0, 8 )

[sub_resource type="ConvexPolygonShape2D" id=14]
points = PoolVector2Array( 32, 32, 0, 32, 0, 24, 32, 24 )

[sub_resource type="ConvexPolygonShape2D" id=15]
points = PoolVector2Array( 32, 24, 24, 24, 24, 0, 32, 0 )

[sub_resource type="ConvexPolygonShape2D" id=16]
points = PoolVector2Array( 24, 0, 32, 0, 32, 32, 24, 32 )

[sub_resource type="ConvexPolygonShape2D" id=17]
points = PoolVector2Array( 24, 8, 0, 8, 0, 0, 24, 0 )

[sub_resource type="ConvexPolygonShape2D" id=18]
points = PoolVector2Array( 24, 32, 0, 32, 0, 24, 24, 24 )

[sub_resource type="ConvexPolygonShape2D" id=19]
points = PoolVector2Array( 0, 0, 8, 0, 8, 32, 0, 32 )

[sub_resource type="ConvexPolygonShape2D" id=20]
points = PoolVector2Array( 32, 8, 24, 8, 24, 0, 32, 0 )

[sub_resource type="ConvexPolygonShape2D" id=21]
points = PoolVector2Array( 32, 32, 24, 32, 24, 24, 32, 24 )

[sub_resource type="ConvexPolygonShape2D" id=22]
points = PoolVector2Array( 8, 32, 0, 32, 0, 0, 8, 0 )

[sub_resource type="ConvexPolygonShape2D" id=23]
points = PoolVector2Array( 32, 8, 8, 8, 8, 0, 32, 0 )

[sub_resource type="ConvexPolygonShape2D" id=24]
points = PoolVector2Array( 32, 32, 24, 32, 24, 24, 32, 24 )

[sub_resource type="ConvexPolygonShape2D" id=25]
points = PoolVector2Array( 8, 32, 0, 32, 0, 0, 8, 0 )

[sub_resource type="ConvexPolygonShape2D" id=26]
points = PoolVector2Array( 32, 32, 24, 32, 24, 0, 32, 0 )

[sub_resource type="ConvexPolygonShape2D" id=27]
points = PoolVector2Array( 8, 32, 0, 32, 0, 0, 8, 0 )

[sub_resource type="ConvexPolygonShape2D" id=28]
points = PoolVector2Array( 24, 8, 8, 8, 8, 0, 24, 0 )

[sub_resource type="ConvexPolygonShape2D" id=29]
points = PoolVector2Array( 24, 0, 32, 0, 32, 32, 24, 32 )

[sub_resource type="ConvexPolygonShape2D" id=30]
points = PoolVector2Array( 8, 32, 0, 32, 0, 0, 8, 0 )

[sub_resource type="ConvexPolygonShape2D" id=31]
points = PoolVector2Array( 32, 32, 8, 32, 8, 24, 32, 24 )

[sub_resource type="ConvexPolygonShape2D" id=32]
points = PoolVector2Array( 32, 8, 24, 8, 24, 0, 32, 0 )

[sub_resource type="ConvexPolygonShape2D" id=33]
points = PoolVector2Array( 32, 8, 0, 8, 0, 0, 32, 0 )

[sub_resource type="ConvexPolygonShape2D" id=34]
points = PoolVector2Array( 32, 32, 0, 32, 0, 24, 32, 24 )

[sub_resource type="ConvexPolygonShape2D" id=35]
points = PoolVector2Array( 0, 8, 8, 8, 8, 24, 0, 24 )

[sub_resource type="ConvexPolygonShape2D" id=36]
points = PoolVector2Array( 0, 0, 8, 0, 8, 32, 0, 32 )

[sub_resource type="ConvexPolygonShape2D" id=37]
points = PoolVector2Array( 32, 32, 24, 32, 24, 0, 32, 0 )

[sub_resource type="ConvexPolygonShape2D" id=38]
points = PoolVector2Array( 24, 32, 8, 32, 8, 24, 24, 24 )

[sub_resource type="ConvexPolygonShape2D" id=39]
points = PoolVector2Array( 8, 32, 0, 32, 0, 0, 8, 0 )

[sub_resource type="ConvexPolygonShape2D" id=40]
points = PoolVector2Array( 32, 32, 24, 32, 24, 0, 32, 0 )

[sub_resource type="ConvexPolygonShape2D" id=41]
points = PoolVector2Array( 8, 0, 24, 0, 24, 8, 8, 8 )

[sub_resource type="ConvexPolygonShape2D" id=42]
points = PoolVector2Array( 8, 24, 24, 24, 24, 32, 8, 32 )

[sub_resource type="ConvexPolygonShape2D" id=43]
points = PoolVector2Array( 32, 32, 24, 32, 24, 0, 32, 0 )

[sub_resource type="ConvexPolygonShape2D" id=44]
points = PoolVector2Array( 0, 0, 8, 0, 8, 8, 0, 8 )

[sub_resource type="ConvexPolygonShape2D" id=45]
points = PoolVector2Array( 8, 32, 0, 32, 0, 24, 8, 24 )

[sub_resource type="ConvexPolygonShape2D" id=46]
points = PoolVector2Array( 0, 0, 32, 0, 32, 8, 0, 8 )

[sub_resource type="ConvexPolygonShape2D" id=47]
points = PoolVector2Array( 32, 32, 24, 32, 24, 8, 32, 8 )

[sub_resource type="ConvexPolygonShape2D" id=48]
points = PoolVector2Array( 0, 24, 8, 24, 8, 32, 0, 32 )

[resource]
0/name = "0"
0/texture = ExtResource( 1 )
0/tex_offset = Vector2( 0, 0 )
0/modulate = Color( 1, 1, 1, 1 )
0/region = Rect2( 0, 0, 32, 32 )
0/tile_mode = 0
0/occluder_offset = Vector2( 0, 0 )
0/navigation_offset = Vector2( 0, 0 )
0/shape_offset = Vector2( 0, 0 )
0/shape_transform = Transform2D( 1, 0, 0, 1, 0, 0 )
0/shape = SubResource( 1 )
0/shape_one_way = false
0/shape_one_way_margin = 1.0
0/shapes = [ {
"autotile_coord": Vector2( 0, 0 ),
"one_way": false,
"one_way_margin": 1.0,
"shape": SubResource( 1 ),
"shape_transform": Transform2D( 1, 0, 0, 1, 0, 0 )
}, {
"autotile_coord": Vector2( 0, 0 ),
"one_way": false,
"one_way_margin": 1.0,
"shape": SubResource( 2 ),
"shape_transform": Transform2D( 1, 0, 0, 1, 0, 0 )
}, {
"autotile_coord": Vector2( 0, 0 ),
"one_way": false,
"one_way_margin": 1.0,
"shape": SubResource( 3 ),
"shape_transform": Transform2D( 1, 0, 0, 1, 0, 0 )
}, {
"autotile_coord": Vector2( 0, 0 ),
"one_way": false,
"one_way_margin": 1.0,
"shape": SubResource( 4 ),
"shape_transform": Transform2D( 1, 0, 0, 1, 0, 0 )
} ]
0/z_index = 0
1/name = "1"
1/texture = ExtResource( 1 )
1/tex_offset = Vector2( 0, 0 )
1/modulate = Color( 1, 1, 1, 1 )
1/region = Rect2( 32, 0, 32, 32 )
1/tile_mode = 0
1/occluder_offset = Vector2( 0, 0 )
1/navigation_offset = Vector2( 0, 0 )
1/shape_offset = Vector2( 0, 0 )
1/shape_transform = Transform2D( 1, 0, 0, 1, 0, 0 )
1/shape = SubResource( 5 )
1/shape_one_way = false
1/shape_one_way_margin = 1.0
1/shapes = [ {
"autotile_coord": Vector2( 0, 0 ),
"one_way": false,
"one_way_margin": 1.0,
"shape": SubResource( 5 ),
"shape_transform": Transform2D( 1, 0, 0, 1, 0, 0 )
}, {
"autotile_coord": Vector2( 0, 0 ),
"one_way": false,
"one_way_margin": 1.0,
"shape": SubResource( 6 ),
"shape_transform": Transform2D( 1, 0, 0, 1, 0, 0 )
}, {
"autotile_coord": Vector2( 0, 0 ),
"one_way": false,
"one_way_margin": 1.0,
"shape": SubResource( 7 ),
"shape_transform": Transform2D( 1, 0, 0, 1, 0, 0 )
} ]
1/z_index = 0
2/name = "10"
2/texture = ExtResource( 1 )
2/tex_offset = Vector2( 0, 0 )
2/modulate = Color( 1, 1, 1, 1 )
2/region = Rect2( 64, 0, 32, 32 )
2/tile_mode = 0
2/occluder_offset = Vector2( 0, 0 )
2/navigation_offset = Vector2( 0, 0 )
2/shape_offset = Vector2( 0, 0 )
2/shape_transform = Transform2D( 1, 0, 0, 1, 0, 0 )
2/shape = SubResource( 25 )
2/shape_one_way = false
2/shape_one_way_margin = 1.0
2/shapes = [ {
"autotile_coord": Vector2( 0, 0 ),
"one_way": false,
"one_way_margin": 1.0,
"shape": SubResource( 25 ),
"shape_transform": Transform2D( 1, 0, 0, 1, 0, 0 )
}, {
"autotile_coord": Vector2( 0, 0 ),
"one_way": false,
"one_way_margin": 1.0,
"shape": SubResource( 26 ),
"shape_transform": Transform2D( 1, 0, 0, 1, 0, 0 )
} ]
2/z_index = 0
3/name = "11"
3/texture = ExtResource( 1 )
3/tex_offset = Vector2( 0, 0 )
3/modulate = Color( 1, 1, 1, 1 )
3/region = Rect2( 96, 0, 32, 32 )
3/tile_mode = 0
3/occluder_offset = Vector2( 0, 0 )
3/navigation_offset = Vector2( 0, 0 )
3/shape_offset = Vector2( 0, 0 )
3/shape_transform = Transform2D( 1, 0, 0, 1, 0, 0 )
3/shape = SubResource( 27 )
3/shape_one_way = false
3/shape_one_way_margin = 1.0
3/shapes = [ {
"autotile_coord": Vector2( 0, 0 ),
"one_way": false,
"one_way_margin": 1.0,
"shape": SubResource( 27 ),
"shape_transform": Transform2D( 1, 0, 0, 1, 0, 0 )
}, {
"autotile_coord": Vector2( 0, 0 ),
"one_way": false,
"one_way_margin": 1.0,
"shape": SubResource( 28 ),
"shape_transform": Transform2D( 1, 0, 0, 1, 0, 0 )
}, {
"autotile_coord": Vector2( 0, 0 ),
"one_way": false,
"one_way_margin": 1.0,
"shape": SubResource( 29 ),
"shape_transform": Transform2D( 1, 0, 0, 1, 0, 0 )
} ]
3/z_index = 0
4/name = "12"
4/texture = ExtResource( 1 )
4/tex_offset = Vector2( 0, 0 )
4/modulate = Color( 1, 1, 1, 1 )
4/region = Rect2( 0, 32, 32, 32 )
4/tile_mode = 0
4/occluder_offset = Vector2( 0, 0 )
4/navigation_offset = Vector2( 0, 0 )
4/shape_offset = Vector2( 0, 0 )
4/shape_transform = Transform2D( 1, 0, 0, 1, 0, 0 )
4/shape = SubResource( 30 )
4/shape_one_way = false
4/shape_one_way_margin = 1.0
4/shapes = [ {
"autotile_coord": Vector2( 0, 0 ),
"one_way": false,
"one_way_margin": 1.0,
"shape": SubResource( 30 ),
"shape_transform": Transform2D( 1, 0, 0, 1, 0, 0 )
}, {
"autotile_coord": Vector2( 0, 0 ),
"one_way": false,
"one_way_margin": 1.0,
"shape": SubResource( 31 ),
"shape_transform": Transform2D( 1, 0, 0, 1, 0, 0 )
}, {
"autotile_coord": Vector2( 0, 0 ),
"one_way": false,
"one_way_margin": 1.0,
"shape": SubResource( 32 ),
"shape_transform": Transform2D( 1, 0, 0, 1, 0, 0 )
} ]
4/z_index = 0
5/name = "13"
5/texture = ExtResource( 1 )
5/tex_offset = Vector2( 0, 0 )
5/modulate = Color( 1, 1, 1, 1 )
5/region = Rect2( 32, 32, 32, 32 )
5/tile_mode = 0
5/occluder_offset = Vector2( 0, 0 )
5/navigation_offset = Vector2( 0, 0 )
5/shape_offset = Vector2( 0, 0 )
5/shape_transform = Transform2D( 1, 0, 0, 1, 0, 0 )
5/shape = SubResource( 33 )
5/shape_one_way = false
5/shape_one_way_margin = 1.0
5/shapes = [ {
"autotile_coord": Vector2( 0, 0 ),
"one_way": false,
"one_way_margin": 1.0,
"shape": SubResource( 33 ),
"shape_transform": Transform2D( 1, 0, 0, 1, 0, 0 )
}, {
"autotile_coord": Vector2( 0, 0 ),
"one_way": false,
"one_way_margin": 1.0,
"shape": SubResource( 34 ),
"shape_transform": Transform2D( 1, 0, 0, 1, 0, 0 )
}, {
"autotile_coord": Vector2( 0, 0 ),
"one_way": false,
"one_way_margin": 1.0,
"shape": SubResource( 35 ),
"shape_transform": Transform2D( 1, 0, 0, 1, 0, 0 )
} ]
5/z_index = 0
6/name = "14"
6/texture = ExtResource( 1 )
6/tex_offset = Vector2( 0, 0 )
6/modulate = Color( 1, 1, 1, 1 )
6/region = Rect2( 64, 32, 32, 32 )
6/tile_mode = 0
6/occluder_offset = Vector2( 0, 0 )
6/navigation_offset = Vector2( 0, 0 )
6/shape_offset = Vector2( 0, 0 )
6/shape_transform = Transform2D( 1, 0, 0, 1, 0, 0 )
6/shape = SubResource( 36 )
6/shape_one_way = false
6/shape_one_way_margin = 1.0
6/shapes = [ {
"autotile_coord": Vector2( 0, 0 ),
"one_way": false,
"one_way_margin": 1.0,
"shape": SubResource( 36 ),
"shape_transform": Transform2D( 1, 0, 0, 1, 0, 0 )
}, {
"autotile_coord": Vector2( 0, 0 ),
"one_way": false,
"one_way_margin": 1.0,
"shape": SubResource( 37 ),
"shape_transform": Transform2D( 1, 0, 0, 1, 0, 0 )
}, {
"autotile_coord": Vector2( 0, 0 ),
"one_way": false,
"one_way_margin": 1.0,
"shape": SubResource( 38 ),
"shape_transform": Transform2D( 1, 0, 0, 1, 0, 0 )
} ]
6/z_index = 0
7/name = "15"
7/texture = ExtResource( 1 )
7/tex_offset = Vector2( 0, 0 )
7/modulate = Color( 1, 1, 1, 1 )
7/region = Rect2( 96, 32, 32, 32 )
7/tile_mode = 0
7/occluder_offset = Vector2( 0, 0 )
7/navigation_offset = Vector2( 0, 0 )
7/shape_offset = Vector2( 0, 0 )
7/shape_transform = Transform2D( 1, 0, 0, 1, 0, 0 )
7/shape = SubResource( 39 )
7/shape_one_way = false
7/shape_one_way_margin = 1.0
7/shapes = [ {
"autotile_coord": Vector2( 0, 0 ),
"one_way": false,
"one_way_margin": 1.0,
"shape": SubResource( 39 ),
"shape_transform": Transform2D( 1, 0, 0, 1, 0, 0 )
}, {
"autotile_coord": Vector2( 0, 0 ),
"one_way": false,
"one_way_margin": 1.0,
"shape": SubResource( 40 ),
"shape_transform": Transform2D( 1, 0, 0, 1, 0, 0 )
}, {
"autotile_coord": Vector2( 0, 0 ),
"one_way": false,
"one_way_margin": 1.0,
"shape": SubResource( 41 ),
"shape_transform": Transform2D( 1, 0, 0, 1, 0, 0 )
}, {
"autotile_coord": Vector2( 0, 0 ),
"one_way": false,
"one_way_margin": 1.0,
"shape": SubResource( 42 ),
"shape_transform": Transform2D( 1, 0, 0, 1, 0, 0 )
} ]
7/z_index = 0
8/name = "2"
8/texture = ExtResource( 1 )
8/tex_offset = Vector2( 0, 0 )
8/modulate = Color( 1, 1, 1, 1 )
8/region = Rect2( 0, 64, 32, 32 )
8/tile_mode = 0
8/occluder_offset = Vector2( 0, 0 )
8/navigation_offset = Vector2( 0, 0 )
8/shape_offset = Vector2( 0, 0 )
8/shape_transform = Transform2D( 1, 0, 0, 1, 0, 0 )
8/shape = SubResource( 43 )
8/shape_one_way = false
8/shape_one_way_margin = 1.0
8/shapes = [ {
"autotile_coord": Vector2( 0, 0 ),
"one_way": false,
"one_way_margin": 1.0,
"shape": SubResource( 43 ),
"shape_transform": Transform2D( 1, 0, 0, 1, 0, 0 )
}, {
"autotile_coord": Vector2( 0, 0 ),
"one_way": false,
"one_way_margin": 1.0,
"shape": SubResource( 44 ),
"shape_transform": Transform2D( 1, 0, 0, 1, 0, 0 )
}, {
"autotile_coord": Vector2( 0, 0 ),
"one_way": false,
"one_way_margin": 1.0,
"shape": SubResource( 45 ),
"shape_transform": Transform2D( 1, 0, 0, 1, 0, 0 )
} ]
8/z_index = 0
9/name = "3"
9/texture = ExtResource( 1 )
9/tex_offset = Vector2( 0, 0 )
9/modulate = Color( 1, 1, 1, 1 )
9/region = Rect2( 32, 64, 32, 32 )
9/tile_mode = 0
9/occluder_offset = Vector2( 0, 0 )
9/navigation_offset = Vector2( 0, 0 )
9/shape_offset = Vector2( 0, 0 )
9/shape_transform = Transform2D( 1, 0, 0, 1, 0, 0 )
9/shape = SubResource( 46 )
9/shape_one_way = false
9/shape_one_way_margin = 1.0
9/shapes = [ {
"autotile_coord": Vector2( 0, 0 ),
"one_way": false,
"one_way_margin": 1.0,
"shape": SubResource( 46 ),
"shape_transform": Transform2D( 1, 0, 0, 1, 0, 0 )
}, {
"autotile_coord": Vector2( 0, 0 ),
"one_way": false,
"one_way_margin": 1.0,
"shape": SubResource( 47 ),
"shape_transform": Transform2D( 1, 0, 0, 1, 0, 0 )
}, {
"autotile_coord": Vector2( 0, 0 ),
"one_way": false,
"one_way_margin": 1.0,
"shape": SubResource( 48 ),
"shape_transform": Transform2D( 1, 0, 0, 1, 0, 0 )
} ]
9/z_index = 0
10/name = "4"
10/texture = ExtResource( 1 )
10/tex_offset = Vector2( 0, 0 )
10/modulate = Color( 1, 1, 1, 1 )
10/region = Rect2( 64, 64, 32, 32 )
10/tile_mode = 0
10/occluder_offset = Vector2( 0, 0 )
10/navigation_offset = Vector2( 0, 0 )
10/shape_offset = Vector2( 0, 0 )
10/shape_transform = Transform2D( 1, 0, 0, 1, 0, 0 )
10/shape = SubResource( 8 )
10/shape_one_way = false
10/shape_one_way_margin = 1.0
10/shapes = [ {
"autotile_coord": Vector2( 0, 0 ),
"one_way": false,
"one_way_margin": 1.0,
"shape": SubResource( 8 ),
"shape_transform": Transform2D( 1, 0, 0, 1, 0, 0 )
}, {
"autotile_coord": Vector2( 0, 0 ),
"one_way": false,
"one_way_margin": 1.0,
"shape": SubResource( 9 ),
"shape_transform": Transform2D( 1, 0, 0, 1, 0, 0 )
}, {
"autotile_coord": Vector2( 0, 0 ),
"one_way": false,
"one_way_margin": 1.0,
"shape": SubResource( 10 ),
"shape_transform": Transform2D( 1, 0, 0, 1, 0, 0 )
} ]
10/z_index = 0
11/name = "5"
11/texture = ExtResource( 1 )
11/tex_offset = Vector2( 0, 0 )
11/modulate = Color( 1, 1, 1, 1 )
11/region = Rect2( 96, 64, 32, 32 )
11/tile_mode = 0
11/occluder_offset = Vector2( 0, 0 )
11/navigation_offset = Vector2( 0, 0 )
11/shape_offset = Vector2( 0, 0 )
11/shape_transform = Transform2D( 1, 0, 0, 1, 0, 0 )
11/shape = SubResource( 11 )
11/shape_one_way = false
11/shape_one_way_margin = 1.0
11/shapes = [ {
"autotile_coord": Vector2( 0, 0 ),
"one_way": false,
"one_way_margin": 1.0,
"shape": SubResource( 11 ),
"shape_transform": Transform2D( 1, 0, 0, 1, 0, 0 )
}, {
"autotile_coord": Vector2( 0, 0 ),
"one_way": false,
"one_way_margin": 1.0,
"shape": SubResource( 12 ),
"shape_transform": Transform2D( 1, 0, 0, 1, 0, 0 )
} ]
11/z_index = 0
12/name = "6"
12/texture = ExtResource( 1 )
12/tex_offset = Vector2( 0, 0 )
12/modulate = Color( 1, 1, 1, 1 )
12/region = Rect2( 0, 96, 32, 32 )
12/tile_mode = 0
12/occluder_offset = Vector2( 0, 0 )
12/navigation_offset = Vector2( 0, 0 )
12/shape_offset = Vector2( 0, 0 )
12/shape_transform = Transform2D( 1, 0, 0, 1, 0, 0 )
12/shape = SubResource( 13 )
12/shape_one_way = false
12/shape_one_way_margin = 1.0
12/shapes = [ {
"autotile_coord": Vector2( 0, 0 ),
"one_way": false,
"one_way_margin": 1.0,
"shape": SubResource( 13 ),
"shape_transform": Transform2D( 1, 0, 0, 1, 0, 0 )
}, {
"autotile_coord": Vector2( 0, 0 ),
"one_way": false,
"one_way_margin": 1.0,
"shape": SubResource( 14 ),
"shape_transform": Transform2D( 1, 0, 0, 1, 0, 0 )
}, {
"autotile_coord": Vector2( 0, 0 ),
"one_way": false,
"one_way_margin": 1.0,
"shape": SubResource( 15 ),
"shape_transform": Transform2D( 1, 0, 0, 1, 0, 0 )
} ]
12/z_index = 0
13/name = "7"
13/texture = ExtResource( 1 )
13/tex_offset = Vector2( 0, 0 )
13/modulate = Color( 1, 1, 1, 1 )
13/region = Rect2( 32, 96, 32, 32 )
13/tile_mode = 0
13/occluder_offset = Vector2( 0, 0 )
13/navigation_offset = Vector2( 0, 0 )
13/shape_offset = Vector2( 0, 0 )
13/shape_transform = Transform2D( 1, 0, 0, 1, 0, 0 )
13/shape = SubResource( 16 )
13/shape_one_way = false
13/shape_one_way_margin = 1.0
13/shapes = [ {
"autotile_coord": Vector2( 0, 0 ),
"one_way": false,
"one_way_margin": 1.0,
"shape": SubResource( 16 ),
"shape_transform": Transform2D( 1, 0, 0, 1, 0, 0 )
}, {
"autotile_coord": Vector2( 0, 0 ),
"one_way": false,
"one_way_margin": 1.0,
"shape": SubResource( 17 ),
"shape_transform": Transform2D( 1, 0, 0, 1, 0, 0 )
}, {
"autotile_coord": Vector2( 0, 0 ),
"one_way": false,
"one_way_margin": 1.0,
"shape": SubResource( 18 ),
"shape_transform": Transform2D( 1, 0, 0, 1, 0, 0 )
} ]
13/z_index = 0
14/name = "8"
14/texture = ExtResource( 1 )
14/tex_offset = Vector2( 0, 0 )
14/modulate = Color( 1, 1, 1, 1 )
14/region = Rect2( 64, 96, 32, 32 )
14/tile_mode = 0
14/occluder_offset = Vector2( 0, 0 )
14/navigation_offset = Vector2( 0, 0 )
14/shape_offset = Vector2( 0, 0 )
14/shape_transform = Transform2D( 1, 0, 0, 1, 0, 0 )
14/shape = SubResource( 19 )
14/shape_one_way = false
14/shape_one_way_margin = 1.0
14/shapes = [ {
"autotile_coord": Vector2( 0, 0 ),
"one_way": false,
"one_way_margin": 1.0,
"shape": SubResource( 19 ),
"shape_transform": Transform2D( 1, 0, 0, 1, 0, 0 )
}, {
"autotile_coord": Vector2( 0, 0 ),
"one_way": false,
"one_way_margin": 1.0,
"shape": SubResource( 20 ),
"shape_transform": Transform2D( 1, 0, 0, 1, 0, 0 )
}, {
"autotile_coord": Vector2( 0, 0 ),
"one_way": false,
"one_way_margin": 1.0,
"shape": SubResource( 21 ),
"shape_transform": Transform2D( 1, 0, 0, 1, 0, 0 )
} ]
14/z_index = 0
15/name = "9"
15/texture = ExtResource( 1 )
15/tex_offset = Vector2( 0, 0 )
15/modulate = Color( 1, 1, 1, 1 )
15/region = Rect2( 96, 96, 32, 32 )
15/tile_mode = 0
15/occluder_offset = Vector2( 0, 0 )
15/navigation_offset = Vector2( 0, 0 )
15/shape_offset = Vector2( 0, 0 )
15/shape_transform = Transform2D( 1, 0, 0, 1, 0, 0 )
15/shape = SubResource( 22 )
15/shape_one_way = false
15/shape_one_way_margin = 1.0
15/shapes = [ {
"autotile_coord": Vector2( 0, 0 ),
"one_way": false,
"one_way_margin": 1.0,
"shape": SubResource( 22 ),
"shape_transform": Transform2D( 1, 0, 0, 1, 0, 0 )
}, {
"autotile_coord": Vector2( 0, 0 ),
"one_way": false,
"one_way_margin": 1.0,
"shape": SubResource( 23 ),
"shape_transform": Transform2D( 1, 0, 0, 1, 0, 0 )
}, {
"autotile_coord": Vector2( 0, 0 ),
"one_way": false,
"one_way_margin": 1.0,
"shape": SubResource( 24 ),
"shape_transform": Transform2D( 1, 0, 0, 1, 0, 0 )
} ]
15/z_index = 0
