[gd_scene load_steps=3 format=2]

[ext_resource path="res://Scenes/NewMaze/TopExit.gd" type="Script" id=1]

[sub_resource type="RectangleShape2D" id=1]
extents = Vector2( 968, 10 )

[node name="TopExit" type="Node2D"]
script = ExtResource( 1 )

[node name="Area" type="Area2D" parent="."]

[node name="CollisionShape" type="CollisionShape2D" parent="Area"]
position = Vector2( 968, 0 )
shape = SubResource( 1 )
[connection signal="body_entered" from="Area" to="." method="_on_Area_body_entered"]
